skip,case_name,:run_name,:temperature_maintenance_loop_config,:system_type,:primary_heater_type,:primary_heater_volume,:primary_heater_multiplier,:primary_tank_per_heater,:primary_heater_setpoint,:primary_heater_hpwh_unit,:primary_heater_elec_resistance_capacity_1,:primary_heater_elec_resistance_capacity_2,:primary_heater_gas_heating_capacity,:primary_heater_hpwh_insul_r,:primary_heater_location,:primary_heater_hpwh_source_air,:loop_heater_config,:loop_heater_type,:loop_heater_volume,:loop_heater_multiplier,:loop_tank_per_heater,:loop_heater_setpoint,:loop_heater_hpwh_unit,:loop_heater_elec_resistance_capacity_1,:loop_heater_elec_resistance_capacity_2,:loop_heater_gas_heating_capacity,:loop_heater_hpwh_insul_r,:loop_heater_location,:loop_heater_hpwh_source_air,:shower_day_waste_fraction,:faucet_day_waste_fraction,:distribution_system_multiplier,:kitchen_sink_flow,:bathroom_faucet_flow,:shower_flow,:dishwasher_flow,:clotheswasher_flow,:loop_calc_method,:loop_pump_power,:loop_flow,:loop_location,:loop_branch_length,:loop_branch_number,:loop_loss_rate_per_apt,:export_minute_day_start,:export_minute_day_end,:add_meter_energy_exports,:add_dhwmeter_flow_exports
#,UNITS,,true | false,"""Central"" | ""In-Unit""","""HPWH"" | ""Electric Resistance"" | ""Gas""",[Gal],Count,Ratio,[F],See Docs,[W],[W],[BTU/hr],ft2-F/Btuh,"""Outside"" | ""Buffer Space"" | ""Conditioned Space""","""Outside"" | ""Buffer Space"", only used if HPWH heater type","""None"" | ""Swing"" | ""Parallel""","""HPWH"" | ""Electric Resistance"" | ""Gas""",[Gal],Count,Ratio,[F],See Docs,[W],[W],[BTU/hr],ft2-F/Btuh,"""Outside"" | ""Buffer Space"" | ""Conditioned Space""","""Outside"" | ""Buffer Space"", only used if HPWH heater type",Ratio of Shower/Faucet water waste,Ratio of Shower/Faucet water waste,multiplier,[gpm],[gpm],[gpm],[gal/cycle],[gal/cycle],"""Heat Loss Rate"" | ""Simulated""",[W],[gpm],Outside | Buffer Space | Conditioned Space  ,[ft],Count,[W/apt],Day of Year,Day of Year,true | false,true | false
#,DEFAULTS,test,true ,Central,,,1,1,140 if not HPWH,"""NyleC250A_CWP_SP"" ",2000,2000,2000,12,"""Conditioned Space"" ","""Outside"" ","""None"" ","""Electric Resistance"" ",750,1,1,131,"""NyleC250A_CWP_SP"" ",75000,75000,2000,12,"""Conditioned Space"" ","""Outside"" ",3,1,1,2.2,1.5,2,5,25.73," ""Heat Loss Rate"" ", sum(num_units) * 0.5 + 4,sum(num_units) * 0.17,"""Conditioned Space"" ",4,sum(num_units),80,-1,-1,false ,false 
,elec-storage-outside,elec-storage-outside,,Central,Electric Resistance,,,,,,,,,,,Outside,,Electric Resistance,,,,,,,,,,,,,,,,,,,,,,,,,,,,,,
,gas-storage-outside,gas-storage-outside,,Central,Gas,,,,,,,,,,,Outside,,Electric Resistance,,,,,,,,,,,,,,,,,,,,,,,,,,,,,,
#,elec-in-unit,elec-in-unit,,In-Unit,Electric Resistance,,,,,,,,,,,Outside,,Electric Resistance,,,,,,,,,,,,,,,,,,,,,,,,,,,,,,
,chpwh-outside,chpwh-outside,,Central,HPWH,,,,,,,,,,,Outside,Swing,Electric Resistance,,,,,,,,,,,,,,,,,,,,,,,,,,,,,,
#,chpwh-outside-chpwh-parallel-heater,chpwh-outside-chpwh-parallel-heater,,Central,HPWH,,,,,,,,,,,Outside,Parallel,HPWH,,,,,SandenGS3,,,,,,,,,,,,,,,,,,,,,,,,,
#,chpwh-outside-sanden,chpwh-outside-sanden,,Central,HPWH,,,,,SandenGS3,,,,,,Outside,Swing,Electric Resistance,,,,,,,,,,,,,,,,,,,,,,,,,,,,,,
#,buffer-test_hpwh-source-air,buffer-test_hpwh-source-air,,Central,HPWH,,,,,,,,,,,Buffer Space,Swing,Electric Resistance,,,,,,,,,,,,,,,,,,,,,,,,,,,,,,
#,buffer-test_tank-location_above,buffer-test_tank-location_above,,Central,Electric Resistance,,,,,,,,,,Buffer Space,Outside,,Electric Resistance,,,,,,,,,,,,,,,,,,,,,,,,,,,,,,
#,buffer-test_tank-location_below,buffer-test_tank-location_below,,Central,Electric Resistance,,,,,,,,,,Buffer Space,Outside,,Electric Resistance,,,,,,,,,,,,,,,,,,,,,,,,,,,,,,
#,buffer-test_loopelec-location,buffer-test_loopelec-location,,Central,Electric Resistance,,,,,,,,,,,Buffer Space,Swing,Electric Resistance,,,,,,,,,,Buffer Space,,,,,,,,,,,,,,,,,,,,
#,sizing_volume,sizing_volume,,Central,Electric Resistance,Autosize,,,,,,,,,,Outside,,Electric Resistance,,,,,,,,,,,,,,,,,,,,,,,,,,,,,,
#,sizing_capacity,sizing_capacity,,Central,Electric Resistance,,,,,,Autosize,Autosize,,,,Outside,,Electric Resistance,,,,,,,,,,,,,,,,,,,,,,,,,,,,,,
#,sizing_both,sizing_both,,Central,Electric Resistance,Autosize,,,,,Autosize,Autosize,,,,Outside,,Electric Resistance,,,,,,,,,,,,,,,,,,,,,,,,,,,,,,
