skip,climate,climate_zone,:weather_file,codes_file
,CZ1A,"CZ1A Honolulu, Hawaii (very hot, humid) ",USA_HI_Honolulu.Intl.AP.911820_TMY3.epw,
#,CZ2A,"CZ2A Tampa, Florida (hot, humid) ",USA_FL_Tampa.Intl.AP.722110_TMY3.epw,
#,CZ2B,"CZ2B Tucson, Arizona (hot, dry) ",USA_AZ_Tucson.Intl.AP.722740_TMY3.epw,
#,CZ3A,"CZ3A Atlanta, Georgia (warm, humid) ",USA_GA_Atlanta-Hartsfield-Jackson.Intl.AP.722190_TMY3.epw,
#,CZ3B,"CZ3B El Paso, Texas (warm, dry) ",USA_TX_El.Paso.Intl.AP.722700_TMY3.epw,
#,CZ3C,"CZ3C San Diego, California (warm, marine) ",USA_CA_San.Diego-Lindbergh.Field.722900_TMY3.epw,
#,CZ4A,"CZ4A New York, New York (mixed, humid) ",USA_NY_New.York-LaGuardia.AP.725030_TMY3.epw,
#,CZ4B,"CZ4B Albuquerque, New Mexico (mixed, dry) ",USA_NM_Albuquerque.Intl.AP.723650_TMY3.epw,
#,CZ4C,"CZ4C Seattle, Washington (mixed, marine) ",USA_WA_Seattle-Tacoma.Intl.AP.727930_TMY3.epw,
#,CZ5A,"CZ5A Buffalo, NY (cool, humid) ",USA_NY_Buffalo-Greater.Buffalo.Intl.AP.725280_TMY3.epw,
#,CZ5B,"CZ5B Denver, Colorado (cool, dry) ",USA_CO_Denver.Intl.AP.725650_TMY3.epw,
#,CZ5C,"CZ5C Port Angeles, Washington (cool, marine) ",USA_WA_Port.Angeles-William.R.Fairchild.Intl.AP.727885_TMY3.epw,
#,CZ6A,"CZ6A Rochester, Minnesota (cold, humid) ",USA_MN_Rochester.Intl.AP.726440_TMY3.epw,
#,CZ6B,"CZ6B Great Falls, Montana (cold, dry) ",USA_MT_Great.Falls.Intl.AP.727750_TMY3.epw,
#,CZ7,"CZ7 International Falls, Minnesota (very cold) ",USA_MN_International.Falls.Intl.AP.727470_TMY3.epw,
#,CZ8,"CZ8 Fairbanks, Alaska (subarctic/arctic)  ",USA_AK_Fairbanks.Intl.AP.702610_TMY3.epw,
#,CZ01,CZ1  (Arcata),CA_ARCATA-AP_725945S_STYP20.epw,T24_2019.csv
#,CZ02,CZ2  (Santa Rosa),CA_SANTA-ROSA-AP_724957S_STYP20.epw,T24_2019.csv
,CZ03,CZ3  (Oakland),CA_OAKLAND-METRO-AP_724930S_STYP20.epw,T24_2019.csv
#,CZ04,CZ4  (San Jose),CA_SAN-JOSE-REID-HILLV_724946S_STYP20.epw,T24_2019.csv
#,CZ05,CZ5  (Santa Maria),CA_SANTA-MARIA-PUBLIC-AP_723940S_STYP20.epw,T24_2019.csv
#,CZ06,CZ6  (Torrance),CA_TORRANCE-MUNI-AP_722955S_STYP20.epw,T24_2019.csv
#,CZ07,CZ7  (San Diego),CA_SAN-DIEGO-LINDBERGH-FLD_722900S_STYP20.epw,T24_2019.csv
#,CZ08,CZ8  (Fullerton),CA_FULLERTON-MUNI-AP_722976S_STYP20.epw,T24_2019.csv
#,CZ09,CZ9  (Burbank),CA_BURBANK-GLNDLE-PASAD-AP_722880S_STYP20.epw,T24_2019.csv
#,CZ10,CZ10  (Riverside),CA_RIVERSIDE-MUNI_722869S_STYP20.epw,T24_2019.csv
#,CZ11,CZ11  (Red Bluff),CA_RED-BLUFF-MUNI-AP_725910S_STYP20.epw,T24_2019.csv
#,CZ12,CZ12  (Sacramento),CA_SACRAMENTO-EXECUTIVE-AP_724830S_STYP20.epw,T24_2019.csv
#,CZ13,CZ13  (Fresno),CA_FRESNO-YOSEMITE-IAP_723890S_STYP20.epw,T24_2019.csv
#,CZ14,CZ14  (Palmdale),CA_PALMDALE-AP_723820S_STYP20.epw,T24_2019.csv
#,CZ15,CZ15  (Palm Springs),CA_PALM-SPRINGS-IAP_722868S_STYP20.epw,T24_2019.csv
#,CZ16,CZ16  (Blue Canyon),CA_BLUE-CANYON-AP_725845S_STYP20.epw,T24_2019.csv
