{
    "AOSmithCAHP120": {
        "modelName": "MODELS_AOSmithCAHP120",
        "modelEnum": "108",
        "setpoint": "150.0",
        "isSetpointFixed": "0",
        "minCompOperatingTemp": "47.0",
        "tankSizeFixed": "1",
        "tankSize": "111.8",
        "tankUA_kJperHrC": "22.4",
        "canCompScale": "0",
        "numResistanceElements": "2",
        "totalResistanceCapacity": "40945.7",
        "isMultipass": "1",
        "isSplitSystem": "0",
        "coilConfig": "WRAPPED",
        "capacityAtMinOperatingTemp": "32407.6",
        "capacityAt40F": "0.0",
        "cseName": "AOSmithCAHP120"
    },
    "AOSmithHPTU50": {
        "modelName": "MODELS_AOSmithHPTU50",
        "modelEnum": "104",
        "setpoint": "127.0",
        "isSetpointFixed": "0",
        "minCompOperatingTemp": "42.0",
        "tankSizeFixed": "1",
        "tankSize": "45.2",
        "tankUA_kJperHrC": "6.0",
        "canCompScale": "0",
        "numResistanceElements": "2",
        "totalResistanceCapacity": "30709.3",
        "isMultipass": "1",
        "isSplitSystem": "0",
        "coilConfig": "WRAPPED",
        "capacityAtMinOperatingTemp": "3679.2",
        "capacityAt40F": "0.0",
        "cseName": "AOSmithHPTU50"
    },
    "AOSmithHPTU66": {
        "modelName": "MODELS_AOSmithHPTU66",
        "modelEnum": "105",
        "setpoint": "127.0",
        "isSetpointFixed": "0",
        "minCompOperatingTemp": "42.0",
        "tankSizeFixed": "1",
        "tankSize": "64.6",
        "tankUA_kJperHrC": "8.0",
        "canCompScale": "0",
        "numResistanceElements": "2",
        "totalResistanceCapacity": "30709.3",
        "isMultipass": "1",
        "isSplitSystem": "0",
        "coilConfig": "WRAPPED",
        "capacityAtMinOperatingTemp": "3679.2",
        "capacityAt40F": "0.0",
        "cseName": "AOSmithHPTU66"
    },
    "AOSmithHPTU80_DR": {
        "modelName": "MODELS_AOSmithHPTU80_DR",
        "modelEnum": "107",
        "setpoint": "127.0",
        "isSetpointFixed": "0",
        "minCompOperatingTemp": "42.0",
        "tankSizeFixed": "1",
        "tankSize": "75.0",
        "tankUA_kJperHrC": "9.0",
        "canCompScale": "0",
        "numResistanceElements": "2",
        "totalResistanceCapacity": "30709.3",
        "isMultipass": "1",
        "isSplitSystem": "0",
        "coilConfig": "WRAPPED",
        "capacityAtMinOperatingTemp": "4021.4",
        "capacityAt40F": "0.0",
        "cseName": "AOSmithHPTU80DR"
    },
    "AOSmithHPTU80": {
        "modelName": "MODELS_AOSmithHPTU80",
        "modelEnum": "106",
        "setpoint": "127.0",
        "isSetpointFixed": "0",
        "minCompOperatingTemp": "42.0",
        "tankSizeFixed": "1",
        "tankSize": "79.1",
        "tankUA_kJperHrC": "9.0",
        "canCompScale": "0",
        "numResistanceElements": "2",
        "totalResistanceCapacity": "30709.3",
        "isMultipass": "1",
        "isSplitSystem": "0",
        "coilConfig": "WRAPPED",
        "capacityAtMinOperatingTemp": "3679.2",
        "capacityAt40F": "0.0",
        "cseName": "AOSmithHPTU80"
    },
    "AOSmithPHPT60": {
        "modelName": "MODELS_AOSmithPHPT60",
        "modelEnum": "102",
        "setpoint": "127.0",
        "isSetpointFixed": "0",
        "minCompOperatingTemp": "45.0",
        "tankSizeFixed": "1",
        "tankSize": "57.0",
        "tankUA_kJperHrC": "7.3",
        "canCompScale": "0",
        "numResistanceElements": "2",
        "totalResistanceCapacity": "21325.9",
        "isMultipass": "1",
        "isSplitSystem": "0",
        "coilConfig": "WRAPPED",
        "capacityAtMinOperatingTemp": "7676.4",
        "capacityAt40F": "0.0",
        "cseName": "AOSmithPHPT60"
    },
    "AOSmithPHPT80": {
        "modelName": "MODELS_AOSmithPHPT80",
        "modelEnum": "103",
        "setpoint": "127.0",
        "isSetpointFixed": "0",
        "minCompOperatingTemp": "45.0",
        "tankSizeFixed": "1",
        "tankSize": "75.0",
        "tankUA_kJperHrC": "8.8",
        "canCompScale": "0",
        "numResistanceElements": "2",
        "totalResistanceCapacity": "21325.9",
        "isMultipass": "1",
        "isSplitSystem": "0",
        "coilConfig": "WRAPPED",
        "capacityAtMinOperatingTemp": "7676.4",
        "capacityAt40F": "0.0",
        "cseName": "AOSmithPHPT80"
    },
    "AWHSTier3Generic40": {
        "modelName": "MODELS_AWHSTier3Generic40",
        "modelEnum": "175",
        "setpoint": "127.0",
        "isSetpointFixed": "0",
        "minCompOperatingTemp": "42.0",
        "tankSizeFixed": "1",
        "tankSize": "36.1",
        "tankUA_kJperHrC": "5.0",
        "canCompScale": "0",
        "numResistanceElements": "2",
        "totalResistanceCapacity": "29003.2",
        "isMultipass": "1",
        "isSplitSystem": "0",
        "coilConfig": "WRAPPED",
        "capacityAtMinOperatingTemp": "3430.6",
        "capacityAt40F": "0.0",
        "cseName": "AWHSTier3Generic40"
    },
    "AWHSTier3Generic50": {
        "modelName": "MODELS_AWHSTier3Generic50",
        "modelEnum": "176",
        "setpoint": "127.0",
        "isSetpointFixed": "0",
        "minCompOperatingTemp": "42.0",
        "tankSizeFixed": "1",
        "tankSize": "45.0",
        "tankUA_kJperHrC": "6.5",
        "canCompScale": "0",
        "numResistanceElements": "2",
        "totalResistanceCapacity": "29003.2",
        "isMultipass": "1",
        "isSplitSystem": "0",
        "coilConfig": "WRAPPED",
        "capacityAtMinOperatingTemp": "3430.6",
        "capacityAt40F": "0.0",
        "cseName": "AWHSTier3Generic50"
    },
    "AWHSTier3Generic65": {
        "modelName": "MODELS_AWHSTier3Generic65",
        "modelEnum": "177",
        "setpoint": "127.0",
        "isSetpointFixed": "0",
        "minCompOperatingTemp": "42.0",
        "tankSizeFixed": "1",
        "tankSize": "64.0",
        "tankUA_kJperHrC": "7.6",
        "canCompScale": "0",
        "numResistanceElements": "2",
        "totalResistanceCapacity": "29003.2",
        "isMultipass": "1",
        "isSplitSystem": "0",
        "coilConfig": "WRAPPED",
        "capacityAtMinOperatingTemp": "3430.6",
        "capacityAt40F": "0.0",
        "cseName": "AWHSTier3Generic65"
    },
    "AWHSTier3Generic80": {
        "modelName": "MODELS_AWHSTier3Generic80",
        "modelEnum": "178",
        "setpoint": "127.0",
        "isSetpointFixed": "0",
        "minCompOperatingTemp": "42.0",
        "tankSizeFixed": "1",
        "tankSize": "75.4",
        "tankUA_kJperHrC": "10.0",
        "canCompScale": "0",
        "numResistanceElements": "2",
        "totalResistanceCapacity": "29003.2",
        "isMultipass": "1",
        "isSplitSystem": "0",
        "coilConfig": "WRAPPED",
        "capacityAtMinOperatingTemp": "3430.6",
        "capacityAt40F": "0.0",
        "cseName": "AWHSTier3Generic80"
    },
    "basicIntegrated": {
        "modelName": "MODELS_basicIntegrated",
        "modelEnum": "4",
        "setpoint": "122.0",
        "isSetpointFixed": "0",
        "minCompOperatingTemp": "32.0",
        "tankSizeFixed": "0",
        "tankSize": "NA",
        "tankUA_kJperHrC": "NA",
        "canCompScale": "0",
        "numResistanceElements": "2",
        "totalResistanceCapacity": "30709.3",
        "isMultipass": "1",
        "isSplitSystem": "0",
        "coilConfig": "WRAPPED",
        "capacityAtMinOperatingTemp": "3117.9",
        "capacityAt40F": "3836.0",
        "cseName": "BasicIntegrated"
    },
    "BWC2020_65": {
        "modelName": "MODELS_BWC2020_65",
        "modelEnum": "116",
        "setpoint": "127.0",
        "isSetpointFixed": "0",
        "minCompOperatingTemp": "37.0",
        "tankSizeFixed": "1",
        "tankSize": "64.0",
        "tankUA_kJperHrC": "7.6",
        "canCompScale": "0",
        "numResistanceElements": "2",
        "totalResistanceCapacity": "29003.2",
        "isMultipass": "1",
        "isSplitSystem": "0",
        "coilConfig": "WRAPPED",
        "capacityAtMinOperatingTemp": "3394.5",
        "capacityAt40F": "3544.1",
        "cseName": "BWC202065"
    },
    "ColmacCxA_10_MP": {
        "modelName": "MODELS_ColmacCxA_10_MP",
        "modelEnum": "311",
        "setpoint": "135.0",
        "isSetpointFixed": "0",
        "minCompOperatingTemp": "40.0",
        "tankSizeFixed": "0",
        "tankSize": "NA",
        "tankUA_kJperHrC": "NA",
        "canCompScale": "0",
        "numResistanceElements": "0",
        "totalResistanceCapacity": "0.0",
        "isMultipass": "1",
        "isSplitSystem": "1",
        "coilConfig": "EXTERNAL",
        "capacityAtMinOperatingTemp": "70525.2",
        "capacityAt40F": "70525.2",
        "cseName": "ColmacCxA10_MP"
    },
    "ColmacCxA_10_SP": {
        "modelName": "MODELS_ColmacCxA_10_SP",
        "modelEnum": "211",
        "setpoint": "135.0",
        "isSetpointFixed": "0",
        "minCompOperatingTemp": "40.0",
        "tankSizeFixed": "0",
        "tankSize": "NA",
        "tankUA_kJperHrC": "NA",
        "canCompScale": "0",
        "numResistanceElements": "0",
        "totalResistanceCapacity": "0.0",
        "isMultipass": "0",
        "isSplitSystem": "1",
        "coilConfig": "EXTERNAL",
        "capacityAtMinOperatingTemp": "67609.1",
        "capacityAt40F": "67609.1",
        "cseName": "ColmacCxA10_SP"
    },
    "ColmacCxA_15_MP": {
        "modelName": "MODELS_ColmacCxA_15_MP",
        "modelEnum": "312",
        "setpoint": "135.0",
        "isSetpointFixed": "0",
        "minCompOperatingTemp": "40.0",
        "tankSizeFixed": "0",
        "tankSize": "NA",
        "tankUA_kJperHrC": "NA",
        "canCompScale": "0",
        "numResistanceElements": "0",
        "totalResistanceCapacity": "0.0",
        "isMultipass": "1",
        "isSplitSystem": "1",
        "coilConfig": "EXTERNAL",
        "capacityAtMinOperatingTemp": "91951.4",
        "capacityAt40F": "91951.4",
        "cseName": "ColmacCxA15_MP"
    },
    "ColmacCxA_15_SP": {
        "modelName": "MODELS_ColmacCxA_15_SP",
        "modelEnum": "212",
        "setpoint": "135.0",
        "isSetpointFixed": "0",
        "minCompOperatingTemp": "40.0",
        "tankSizeFixed": "0",
        "tankSize": "NA",
        "tankUA_kJperHrC": "NA",
        "canCompScale": "0",
        "numResistanceElements": "0",
        "totalResistanceCapacity": "0.0",
        "isMultipass": "0",
        "isSplitSystem": "1",
        "coilConfig": "EXTERNAL",
        "capacityAtMinOperatingTemp": "93236.8",
        "capacityAt40F": "93236.8",
        "cseName": "ColmacCxA15_SP"
    },
    "ColmacCxA_20_MP": {
        "modelName": "MODELS_ColmacCxA_20_MP",
        "modelEnum": "313",
        "setpoint": "135.0",
        "isSetpointFixed": "0",
        "minCompOperatingTemp": "40.0",
        "tankSizeFixed": "0",
        "tankSize": "NA",
        "tankUA_kJperHrC": "NA",
        "canCompScale": "0",
        "numResistanceElements": "0",
        "totalResistanceCapacity": "0.0",
        "isMultipass": "1",
        "isSplitSystem": "1",
        "coilConfig": "EXTERNAL",
        "capacityAtMinOperatingTemp": "134359.5",
        "capacityAt40F": "134359.5",
        "cseName": "ColmacCxA20_MP"
    },
    "ColmacCxA_20_SP": {
        "modelName": "MODELS_ColmacCxA_20_SP",
        "modelEnum": "213",
        "setpoint": "135.0",
        "isSetpointFixed": "0",
        "minCompOperatingTemp": "40.0",
        "tankSizeFixed": "0",
        "tankSize": "NA",
        "tankUA_kJperHrC": "NA",
        "canCompScale": "0",
        "numResistanceElements": "0",
        "totalResistanceCapacity": "0.0",
        "isMultipass": "0",
        "isSplitSystem": "1",
        "coilConfig": "EXTERNAL",
        "capacityAtMinOperatingTemp": "130979.7",
        "capacityAt40F": "130979.7",
        "cseName": "ColmacCxA20_SP"
    },
    "ColmacCxA_25_MP": {
        "modelName": "MODELS_ColmacCxA_25_MP",
        "modelEnum": "314",
        "setpoint": "135.0",
        "isSetpointFixed": "0",
        "minCompOperatingTemp": "40.0",
        "tankSizeFixed": "0",
        "tankSize": "NA",
        "tankUA_kJperHrC": "NA",
        "canCompScale": "0",
        "numResistanceElements": "0",
        "totalResistanceCapacity": "0.0",
        "isMultipass": "1",
        "isSplitSystem": "1",
        "coilConfig": "EXTERNAL",
        "capacityAtMinOperatingTemp": "158910.3",
        "capacityAt40F": "158910.3",
        "cseName": "ColmacCxA25_MP"
    },
    "ColmacCxA_25_SP": {
        "modelName": "MODELS_ColmacCxA_25_SP",
        "modelEnum": "214",
        "setpoint": "135.0",
        "isSetpointFixed": "0",
        "minCompOperatingTemp": "40.0",
        "tankSizeFixed": "0",
        "tankSize": "NA",
        "tankUA_kJperHrC": "NA",
        "canCompScale": "0",
        "numResistanceElements": "0",
        "totalResistanceCapacity": "0.0",
        "isMultipass": "0",
        "isSplitSystem": "1",
        "coilConfig": "EXTERNAL",
        "capacityAtMinOperatingTemp": "161878.0",
        "capacityAt40F": "161878.0",
        "cseName": "ColmacCxA25_SP"
    },
    "ColmacCxA_30_MP": {
        "modelName": "MODELS_ColmacCxA_30_MP",
        "modelEnum": "315",
        "setpoint": "135.0",
        "isSetpointFixed": "0",
        "minCompOperatingTemp": "40.0",
        "tankSizeFixed": "0",
        "tankSize": "NA",
        "tankUA_kJperHrC": "NA",
        "canCompScale": "0",
        "numResistanceElements": "0",
        "totalResistanceCapacity": "0.0",
        "isMultipass": "1",
        "isSplitSystem": "1",
        "coilConfig": "EXTERNAL",
        "capacityAtMinOperatingTemp": "184691.8",
        "capacityAt40F": "184691.8",
        "cseName": "ColmacCxA30_MP"
    },
    "ColmacCxA_30_SP": {
        "modelName": "MODELS_ColmacCxA_30_SP",
        "modelEnum": "215",
        "setpoint": "135.0",
        "isSetpointFixed": "0",
        "minCompOperatingTemp": "40.0",
        "tankSizeFixed": "0",
        "tankSize": "NA",
        "tankUA_kJperHrC": "NA",
        "canCompScale": "0",
        "numResistanceElements": "0",
        "totalResistanceCapacity": "0.0",
        "isMultipass": "0",
        "isSplitSystem": "1",
        "coilConfig": "EXTERNAL",
        "capacityAtMinOperatingTemp": "185131.0",
        "capacityAt40F": "185131.0",
        "cseName": "ColmacCxA30_SP"
    },
    "ColmacCxV_5_MP": {
        "modelName": "MODELS_ColmacCxV_5_MP",
        "modelEnum": "310",
        "setpoint": "135.0",
        "isSetpointFixed": "0",
        "minCompOperatingTemp": "-4.0",
        "tankSizeFixed": "0",
        "tankSize": "NA",
        "tankUA_kJperHrC": "NA",
        "canCompScale": "0",
        "numResistanceElements": "0",
        "totalResistanceCapacity": "0.0",
        "isMultipass": "1",
        "isSplitSystem": "1",
        "coilConfig": "EXTERNAL",
        "capacityAtMinOperatingTemp": "26059.1",
        "capacityAt40F": "44625.8",
        "cseName": "ColmacCxV5_MP"
    },
    "ColmacCxV_5_SP": {
        "modelName": "MODELS_ColmacCxV_5_SP",
        "modelEnum": "210",
        "setpoint": "135.0",
        "isSetpointFixed": "0",
        "minCompOperatingTemp": "-4.0",
        "tankSizeFixed": "0",
        "tankSize": "NA",
        "tankUA_kJperHrC": "NA",
        "canCompScale": "0",
        "numResistanceElements": "0",
        "totalResistanceCapacity": "0.0",
        "isMultipass": "0",
        "isSplitSystem": "1",
        "coilConfig": "EXTERNAL",
        "capacityAtMinOperatingTemp": "26947.5",
        "capacityAt40F": "44517.5",
        "cseName": "ColmacCxV5_SP"
    },
    "GE2012": {
        "modelName": "MODELS_GE2012",
        "modelEnum": "110",
        "setpoint": "127.0",
        "isSetpointFixed": "0",
        "minCompOperatingTemp": "45.0",
        "tankSizeFixed": "1",
        "tankSize": "45.4",
        "tankUA_kJperHrC": "6.8",
        "canCompScale": "0",
        "numResistanceElements": "2",
        "totalResistanceCapacity": "28662.0",
        "isMultipass": "1",
        "isSplitSystem": "0",
        "coilConfig": "WRAPPED",
        "capacityAtMinOperatingTemp": "4717.6",
        "capacityAt40F": "0.0",
        "cseName": "GE2012"
    },
    "GE2014STDMode_80": {
        "modelName": "MODELS_GE2014STDMode_80",
        "modelEnum": "113",
        "setpoint": "127.0",
        "isSetpointFixed": "0",
        "minCompOperatingTemp": "37.0",
        "tankSizeFixed": "1",
        "tankSize": "75.4",
        "tankUA_kJperHrC": "10.0",
        "canCompScale": "0",
        "numResistanceElements": "2",
        "totalResistanceCapacity": "29003.2",
        "isMultipass": "1",
        "isSplitSystem": "0",
        "coilConfig": "SUBMERGED",
        "capacityAtMinOperatingTemp": "3394.5",
        "capacityAt40F": "3544.1",
        "cseName": "GE2014StdMode80"
    },
    "GE2014STDMode": {
        "modelName": "MODELS_GE2014STDMode",
        "modelEnum": "111",
        "setpoint": "127.0",
        "isSetpointFixed": "0",
        "minCompOperatingTemp": "37.0",
        "tankSizeFixed": "1",
        "tankSize": "45.0",
        "tankUA_kJperHrC": "6.5",
        "canCompScale": "0",
        "numResistanceElements": "2",
        "totalResistanceCapacity": "29003.2",
        "isMultipass": "1",
        "isSplitSystem": "0",
        "coilConfig": "WRAPPED",
        "capacityAtMinOperatingTemp": "3394.5",
        "capacityAt40F": "3544.1",
        "cseName": "GE2014StdMode"
    },
    "GE2014_80DR": {
        "modelName": "MODELS_GE2014_80DR",
        "modelEnum": "115",
        "setpoint": "127.0",
        "isSetpointFixed": "0",
        "minCompOperatingTemp": "37.0",
        "tankSizeFixed": "1",
        "tankSize": "75.4",
        "tankUA_kJperHrC": "10.0",
        "canCompScale": "0",
        "numResistanceElements": "2",
        "totalResistanceCapacity": "29003.2",
        "isMultipass": "1",
        "isSplitSystem": "0",
        "coilConfig": "WRAPPED",
        "capacityAtMinOperatingTemp": "3394.5",
        "capacityAt40F": "3544.1",
        "cseName": "GE2014_80DR"
    },
    "GE2014_80": {
        "modelName": "MODELS_GE2014_80",
        "modelEnum": "114",
        "setpoint": "127.0",
        "isSetpointFixed": "0",
        "minCompOperatingTemp": "37.0",
        "tankSizeFixed": "1",
        "tankSize": "75.4",
        "tankUA_kJperHrC": "10.0",
        "canCompScale": "0",
        "numResistanceElements": "2",
        "totalResistanceCapacity": "29003.2",
        "isMultipass": "1",
        "isSplitSystem": "0",
        "coilConfig": "WRAPPED",
        "capacityAtMinOperatingTemp": "3394.5",
        "capacityAt40F": "3544.1",
        "cseName": "GE2014_80"
    },
    "GE2014": {
        "modelName": "MODELS_GE2014",
        "modelEnum": "112",
        "setpoint": "127.0",
        "isSetpointFixed": "0",
        "minCompOperatingTemp": "37.0",
        "tankSizeFixed": "1",
        "tankSize": "45.0",
        "tankUA_kJperHrC": "6.5",
        "canCompScale": "0",
        "numResistanceElements": "2",
        "totalResistanceCapacity": "29003.2",
        "isMultipass": "1",
        "isSplitSystem": "0",
        "coilConfig": "WRAPPED",
        "capacityAtMinOperatingTemp": "3394.5",
        "capacityAt40F": "3544.1",
        "cseName": "GE2014"
    },
    "MITSUBISHI_QAHV_N136TAU_HPB_SP": {
        "modelName": "MODELS_MITSUBISHI_QAHV_N136TAU_HPB_SP",
        "modelEnum": "250",
        "setpoint": "149.0",
        "isSetpointFixed": "0",
        "minCompOperatingTemp": "-13.0",
        "tankSizeFixed": "0",
        "tankSize": "NA",
        "tankUA_kJperHrC": "NA",
        "canCompScale": "0",
        "numResistanceElements": "0",
        "totalResistanceCapacity": "0.0",
        "isMultipass": "0",
        "isSplitSystem": "1",
        "coilConfig": "EXTERNAL",
        "capacityAtMinOperatingTemp": "68264.9",
        "capacityAt40F": "137123.0",
        "cseName": "Mitsubishi_QAHV_N136TAU_HPB_SP"
    },
    "NyleC125A_C_MP": {
        "modelName": "MODELS_NyleC125A_C_MP",
        "modelEnum": "343",
        "setpoint": "135.0",
        "isSetpointFixed": "0",
        "minCompOperatingTemp": "35.0",
        "tankSizeFixed": "0",
        "tankSize": "NA",
        "tankUA_kJperHrC": "NA",
        "canCompScale": "0",
        "numResistanceElements": "0",
        "totalResistanceCapacity": "0.0",
        "isMultipass": "1",
        "isSplitSystem": "1",
        "coilConfig": "EXTERNAL",
        "capacityAtMinOperatingTemp": "84473.4",
        "capacityAt40F": "84473.4",
        "cseName": "NyleC125A_CWP_MP"
    },
    "NyleC125A_C_SP": {
        "modelName": "MODELS_NyleC125A_C_SP",
        "modelEnum": "243",
        "setpoint": "135.0",
        "isSetpointFixed": "0",
        "minCompOperatingTemp": "35.0",
        "tankSizeFixed": "0",
        "tankSize": "NA",
        "tankUA_kJperHrC": "NA",
        "canCompScale": "0",
        "numResistanceElements": "0",
        "totalResistanceCapacity": "0.0",
        "isMultipass": "0",
        "isSplitSystem": "1",
        "coilConfig": "EXTERNAL",
        "capacityAtMinOperatingTemp": "75293.3",
        "capacityAt40F": "85877.2",
        "cseName": "NyleC125A_CWP_SP"
    },
    "NyleC125A_MP": {
        "modelName": "MODELS_NyleC125A_MP",
        "modelEnum": "333",
        "setpoint": "135.0",
        "isSetpointFixed": "0",
        "minCompOperatingTemp": "40.0",
        "tankSizeFixed": "0",
        "tankSize": "NA",
        "tankUA_kJperHrC": "NA",
        "canCompScale": "0",
        "numResistanceElements": "0",
        "totalResistanceCapacity": "0.0",
        "isMultipass": "1",
        "isSplitSystem": "1",
        "coilConfig": "EXTERNAL",
        "capacityAtMinOperatingTemp": "84473.4",
        "capacityAt40F": "84473.4",
        "cseName": "NyleC125A_MP"
    },
    "NyleC125A_SP": {
        "modelName": "MODELS_NyleC125A_SP",
        "modelEnum": "233",
        "setpoint": "135.0",
        "isSetpointFixed": "0",
        "minCompOperatingTemp": "40.0",
        "tankSizeFixed": "0",
        "tankSize": "NA",
        "tankUA_kJperHrC": "NA",
        "canCompScale": "0",
        "numResistanceElements": "0",
        "totalResistanceCapacity": "0.0",
        "isMultipass": "0",
        "isSplitSystem": "1",
        "coilConfig": "EXTERNAL",
        "capacityAtMinOperatingTemp": "85877.2",
        "capacityAt40F": "85877.2",
        "cseName": "NyleC125A_SP"
    },
    "NyleC185A_C_MP": {
        "modelName": "MODELS_NyleC185A_C_MP",
        "modelEnum": "344",
        "setpoint": "135.0",
        "isSetpointFixed": "0",
        "minCompOperatingTemp": "35.0",
        "tankSizeFixed": "0",
        "tankSize": "NA",
        "tankUA_kJperHrC": "NA",
        "canCompScale": "0",
        "numResistanceElements": "0",
        "totalResistanceCapacity": "0.0",
        "isMultipass": "1",
        "isSplitSystem": "1",
        "coilConfig": "EXTERNAL",
        "capacityAtMinOperatingTemp": "132186.3",
        "capacityAt40F": "132186.3",
        "cseName": "NyleC185A_CWP_MP"
    },
    "NyleC185A_C_SP": {
        "modelName": "MODELS_NyleC185A_C_SP",
        "modelEnum": "244",
        "setpoint": "135.0",
        "isSetpointFixed": "0",
        "minCompOperatingTemp": "35.0",
        "tankSizeFixed": "0",
        "tankSize": "NA",
        "tankUA_kJperHrC": "NA",
        "canCompScale": "0",
        "numResistanceElements": "0",
        "totalResistanceCapacity": "0.0",
        "isMultipass": "0",
        "isSplitSystem": "1",
        "coilConfig": "EXTERNAL",
        "capacityAtMinOperatingTemp": "112779.5",
        "capacityAt40F": "129704.3",
        "cseName": "NyleC185A_CWP_SP"
    },
    "NyleC185A_MP": {
        "modelName": "MODELS_NyleC185A_MP",
        "modelEnum": "334",
        "setpoint": "135.0",
        "isSetpointFixed": "0",
        "minCompOperatingTemp": "40.0",
        "tankSizeFixed": "0",
        "tankSize": "NA",
        "tankUA_kJperHrC": "NA",
        "canCompScale": "0",
        "numResistanceElements": "0",
        "totalResistanceCapacity": "0.0",
        "isMultipass": "1",
        "isSplitSystem": "1",
        "coilConfig": "EXTERNAL",
        "capacityAtMinOperatingTemp": "132186.3",
        "capacityAt40F": "132186.3",
        "cseName": "NyleC185A_MP"
    },
    "NyleC185A_SP": {
        "modelName": "MODELS_NyleC185A_SP",
        "modelEnum": "234",
        "setpoint": "135.0",
        "isSetpointFixed": "0",
        "minCompOperatingTemp": "40.0",
        "tankSizeFixed": "0",
        "tankSize": "NA",
        "tankUA_kJperHrC": "NA",
        "canCompScale": "0",
        "numResistanceElements": "0",
        "totalResistanceCapacity": "0.0",
        "isMultipass": "0",
        "isSplitSystem": "1",
        "coilConfig": "EXTERNAL",
        "capacityAtMinOperatingTemp": "129704.3",
        "capacityAt40F": "129704.3",
        "cseName": "NyleC185A_SP"
    },
    "NyleC250A_C_MP": {
        "modelName": "MODELS_NyleC250A_C_MP",
        "modelEnum": "345",
        "setpoint": "135.0",
        "isSetpointFixed": "0",
        "minCompOperatingTemp": "35.0",
        "tankSizeFixed": "0",
        "tankSize": "NA",
        "tankUA_kJperHrC": "NA",
        "canCompScale": "0",
        "numResistanceElements": "0",
        "totalResistanceCapacity": "0.0",
        "isMultipass": "1",
        "isSplitSystem": "1",
        "coilConfig": "EXTERNAL",
        "capacityAtMinOperatingTemp": "155653.1",
        "capacityAt40F": "155653.1",
        "cseName": "NyleC250A_CWP_MP"
    },
    "NyleC250A_C_SP": {
        "modelName": "MODELS_NyleC250A_C_SP",
        "modelEnum": "245",
        "setpoint": "135.0",
        "isSetpointFixed": "0",
        "minCompOperatingTemp": "35.0",
        "tankSizeFixed": "0",
        "tankSize": "NA",
        "tankUA_kJperHrC": "NA",
        "canCompScale": "0",
        "numResistanceElements": "0",
        "totalResistanceCapacity": "0.0",
        "isMultipass": "0",
        "isSplitSystem": "1",
        "coilConfig": "EXTERNAL",
        "capacityAtMinOperatingTemp": "133808.8",
        "capacityAt40F": "157934.5",
        "cseName": "NyleC250A_CWP_SP"
    },
    "NyleC250A_MP": {
        "modelName": "MODELS_NyleC250A_MP",
        "modelEnum": "335",
        "setpoint": "135.0",
        "isSetpointFixed": "0",
        "minCompOperatingTemp": "40.0",
        "tankSizeFixed": "0",
        "tankSize": "NA",
        "tankUA_kJperHrC": "NA",
        "canCompScale": "0",
        "numResistanceElements": "0",
        "totalResistanceCapacity": "0.0",
        "isMultipass": "1",
        "isSplitSystem": "1",
        "coilConfig": "EXTERNAL",
        "capacityAtMinOperatingTemp": "155653.1",
        "capacityAt40F": "155653.1",
        "cseName": "NyleC250A_MP"
    },
    "NyleC250A_SP": {
        "modelName": "MODELS_NyleC250A_SP",
        "modelEnum": "235",
        "setpoint": "135.0",
        "isSetpointFixed": "0",
        "minCompOperatingTemp": "40.0",
        "tankSizeFixed": "0",
        "tankSize": "NA",
        "tankUA_kJperHrC": "NA",
        "canCompScale": "0",
        "numResistanceElements": "0",
        "totalResistanceCapacity": "0.0",
        "isMultipass": "0",
        "isSplitSystem": "1",
        "coilConfig": "EXTERNAL",
        "capacityAtMinOperatingTemp": "157934.5",
        "capacityAt40F": "157934.5",
        "cseName": "NyleC250A_SP"
    },
    "NyleC25A_SP": {
        "modelName": "MODELS_NyleC25A_SP",
        "modelEnum": "230",
        "setpoint": "135.0",
        "isSetpointFixed": "0",
        "minCompOperatingTemp": "40.0",
        "tankSizeFixed": "0",
        "tankSize": "NA",
        "tankUA_kJperHrC": "NA",
        "canCompScale": "0",
        "numResistanceElements": "0",
        "totalResistanceCapacity": "0.0",
        "isMultipass": "0",
        "isSplitSystem": "1",
        "coilConfig": "EXTERNAL",
        "capacityAtMinOperatingTemp": "16152.5",
        "capacityAt40F": "16152.5",
        "cseName": "NyleC25A_SP"
    },
    "NyleC60A_C_MP": {
        "modelName": "MODELS_NyleC60A_C_MP",
        "modelEnum": "341",
        "setpoint": "135.0",
        "isSetpointFixed": "0",
        "minCompOperatingTemp": "35.0",
        "tankSizeFixed": "0",
        "tankSize": "NA",
        "tankUA_kJperHrC": "NA",
        "canCompScale": "0",
        "numResistanceElements": "0",
        "totalResistanceCapacity": "0.0",
        "isMultipass": "1",
        "isSplitSystem": "1",
        "coilConfig": "EXTERNAL",
        "capacityAtMinOperatingTemp": "37353.6",
        "capacityAt40F": "37353.6",
        "cseName": "NyleC60A_CWP_MP"
    },
    "NyleC60A_C_SP": {
        "modelName": "MODELS_NyleC60A_C_SP",
        "modelEnum": "241",
        "setpoint": "135.0",
        "isSetpointFixed": "0",
        "minCompOperatingTemp": "35.0",
        "tankSizeFixed": "0",
        "tankSize": "NA",
        "tankUA_kJperHrC": "NA",
        "canCompScale": "0",
        "numResistanceElements": "0",
        "totalResistanceCapacity": "0.0",
        "isMultipass": "0",
        "isSplitSystem": "1",
        "coilConfig": "EXTERNAL",
        "capacityAtMinOperatingTemp": "32568.9",
        "capacityAt40F": "37296.1",
        "cseName": "NyleC60A_CWP_SP"
    },
    "NyleC60A_MP": {
        "modelName": "MODELS_NyleC60A_MP",
        "modelEnum": "331",
        "setpoint": "135.0",
        "isSetpointFixed": "0",
        "minCompOperatingTemp": "40.0",
        "tankSizeFixed": "0",
        "tankSize": "NA",
        "tankUA_kJperHrC": "NA",
        "canCompScale": "0",
        "numResistanceElements": "0",
        "totalResistanceCapacity": "0.0",
        "isMultipass": "1",
        "isSplitSystem": "1",
        "coilConfig": "EXTERNAL",
        "capacityAtMinOperatingTemp": "37353.6",
        "capacityAt40F": "37353.6",
        "cseName": "NyleC60A_MP"
    },
    "NyleC60A_SP": {
        "modelName": "MODELS_NyleC60A_SP",
        "modelEnum": "231",
        "setpoint": "135.0",
        "isSetpointFixed": "0",
        "minCompOperatingTemp": "40.0",
        "tankSizeFixed": "0",
        "tankSize": "NA",
        "tankUA_kJperHrC": "NA",
        "canCompScale": "0",
        "numResistanceElements": "0",
        "totalResistanceCapacity": "0.0",
        "isMultipass": "0",
        "isSplitSystem": "1",
        "coilConfig": "EXTERNAL",
        "capacityAtMinOperatingTemp": "37296.1",
        "capacityAt40F": "37296.1",
        "cseName": "NyleC60A_SP"
    },
    "NyleC90A_C_MP": {
        "modelName": "MODELS_NyleC90A_C_MP",
        "modelEnum": "342",
        "setpoint": "135.0",
        "isSetpointFixed": "0",
        "minCompOperatingTemp": "35.0",
        "tankSizeFixed": "0",
        "tankSize": "NA",
        "tankUA_kJperHrC": "NA",
        "canCompScale": "0",
        "numResistanceElements": "0",
        "totalResistanceCapacity": "0.0",
        "isMultipass": "1",
        "isSplitSystem": "1",
        "coilConfig": "EXTERNAL",
        "capacityAtMinOperatingTemp": "65046.6",
        "capacityAt40F": "65046.6",
        "cseName": "NyleC90A_CWP_MP"
    },
    "NyleC90A_C_SP": {
        "modelName": "MODELS_NyleC90A_C_SP",
        "modelEnum": "242",
        "setpoint": "135.0",
        "isSetpointFixed": "0",
        "minCompOperatingTemp": "35.0",
        "tankSizeFixed": "0",
        "tankSize": "NA",
        "tankUA_kJperHrC": "NA",
        "canCompScale": "0",
        "numResistanceElements": "0",
        "totalResistanceCapacity": "0.0",
        "isMultipass": "0",
        "isSplitSystem": "1",
        "coilConfig": "EXTERNAL",
        "capacityAtMinOperatingTemp": "55912.0",
        "capacityAt40F": "63478.6",
        "cseName": "NyleC90A_CWP_SP"
    },
    "NyleC90A_MP": {
        "modelName": "MODELS_NyleC90A_MP",
        "modelEnum": "332",
        "setpoint": "135.0",
        "isSetpointFixed": "0",
        "minCompOperatingTemp": "40.0",
        "tankSizeFixed": "0",
        "tankSize": "NA",
        "tankUA_kJperHrC": "NA",
        "canCompScale": "0",
        "numResistanceElements": "0",
        "totalResistanceCapacity": "0.0",
        "isMultipass": "1",
        "isSplitSystem": "1",
        "coilConfig": "EXTERNAL",
        "capacityAtMinOperatingTemp": "65046.6",
        "capacityAt40F": "65046.6",
        "cseName": "NyleC90A_MP"
    },
    "NyleC90A_SP": {
        "modelName": "MODELS_NyleC90A_SP",
        "modelEnum": "232",
        "setpoint": "135.0",
        "isSetpointFixed": "0",
        "minCompOperatingTemp": "40.0",
        "tankSizeFixed": "0",
        "tankSize": "NA",
        "tankUA_kJperHrC": "NA",
        "canCompScale": "0",
        "numResistanceElements": "0",
        "totalResistanceCapacity": "0.0",
        "isMultipass": "0",
        "isSplitSystem": "1",
        "coilConfig": "EXTERNAL",
        "capacityAtMinOperatingTemp": "63478.6",
        "capacityAt40F": "63478.6",
        "cseName": "NyleC90A_SP"
    },
    "restankRealistic": {
        "modelName": "MODELS_restankRealistic",
        "modelEnum": "3",
        "setpoint": "127.0",
        "isSetpointFixed": "0",
        "minCompOperatingTemp": "-274000.0",
        "tankSizeFixed": "0",
        "tankSize": "NA",
        "tankUA_kJperHrC": "NA",
        "canCompScale": "0",
        "numResistanceElements": "2",
        "totalResistanceCapacity": "30709.3",
        "isMultipass": "1",
        "isSplitSystem": "0",
        "coilConfig": "UNKNOWN",
        "capacityAtMinOperatingTemp": "-274000.0",
        "capacityAt40F": "-274000.0",
        "cseName": "ResTank"
    },
    "Rheem2020Build40": {
        "modelName": "MODELS_Rheem2020Build40",
        "modelEnum": "155",
        "setpoint": "127.0",
        "isSetpointFixed": "0",
        "minCompOperatingTemp": "37.0",
        "tankSizeFixed": "1",
        "tankSize": "36.1",
        "tankUA_kJperHrC": "9.5",
        "canCompScale": "0",
        "numResistanceElements": "2",
        "totalResistanceCapacity": "30709.3",
        "isMultipass": "1",
        "isSplitSystem": "0",
        "coilConfig": "WRAPPED",
        "capacityAtMinOperatingTemp": "5032.9",
        "capacityAt40F": "5166.9",
        "cseName": "Rheem2020Build40"
    },
    "Rheem2020Build50": {
        "modelName": "MODELS_Rheem2020Build50",
        "modelEnum": "156",
        "setpoint": "127.0",
        "isSetpointFixed": "0",
        "minCompOperatingTemp": "37.0",
        "tankSizeFixed": "1",
        "tankSize": "45.1",
        "tankUA_kJperHrC": "8.6",
        "canCompScale": "0",
        "numResistanceElements": "2",
        "totalResistanceCapacity": "30709.3",
        "isMultipass": "1",
        "isSplitSystem": "0",
        "coilConfig": "WRAPPED",
        "capacityAtMinOperatingTemp": "5032.9",
        "capacityAt40F": "5166.9",
        "cseName": "Rheem2020Build50"
    },
    "Rheem2020Build65": {
        "modelName": "MODELS_Rheem2020Build65",
        "modelEnum": "157",
        "setpoint": "127.0",
        "isSetpointFixed": "0",
        "minCompOperatingTemp": "37.0",
        "tankSizeFixed": "1",
        "tankSize": "58.5",
        "tankUA_kJperHrC": "10.6",
        "canCompScale": "0",
        "numResistanceElements": "2",
        "totalResistanceCapacity": "30709.3",
        "isMultipass": "1",
        "isSplitSystem": "0",
        "coilConfig": "WRAPPED",
        "capacityAtMinOperatingTemp": "5032.9",
        "capacityAt40F": "5166.9",
        "cseName": "Rheem2020Build65"
    },
    "Rheem2020Build80": {
        "modelName": "MODELS_Rheem2020Build80",
        "modelEnum": "158",
        "setpoint": "127.0",
        "isSetpointFixed": "0",
        "minCompOperatingTemp": "37.0",
        "tankSizeFixed": "1",
        "tankSize": "72.0",
        "tankUA_kJperHrC": "10.8",
        "canCompScale": "0",
        "numResistanceElements": "2",
        "totalResistanceCapacity": "30709.3",
        "isMultipass": "1",
        "isSplitSystem": "0",
        "coilConfig": "WRAPPED",
        "capacityAtMinOperatingTemp": "5032.9",
        "capacityAt40F": "5166.9",
        "cseName": "Rheem2020Build80"
    },
    "Rheem2020Prem40": {
        "modelName": "MODELS_Rheem2020Prem40",
        "modelEnum": "151",
        "setpoint": "127.0",
        "isSetpointFixed": "0",
        "minCompOperatingTemp": "37.0",
        "tankSizeFixed": "1",
        "tankSize": "36.1",
        "tankUA_kJperHrC": "9.5",
        "canCompScale": "0",
        "numResistanceElements": "2",
        "totalResistanceCapacity": "30709.3",
        "isMultipass": "1",
        "isSplitSystem": "0",
        "coilConfig": "WRAPPED",
        "capacityAtMinOperatingTemp": "4275.2",
        "capacityAt40F": "4428.3",
        "cseName": "Rheem2020Prem40"
    },
    "Rheem2020Prem50": {
        "modelName": "MODELS_Rheem2020Prem50",
        "modelEnum": "152",
        "setpoint": "127.0",
        "isSetpointFixed": "0",
        "minCompOperatingTemp": "37.0",
        "tankSizeFixed": "1",
        "tankSize": "45.1",
        "tankUA_kJperHrC": "8.6",
        "canCompScale": "0",
        "numResistanceElements": "2",
        "totalResistanceCapacity": "30709.3",
        "isMultipass": "1",
        "isSplitSystem": "0",
        "coilConfig": "WRAPPED",
        "capacityAtMinOperatingTemp": "4275.2",
        "capacityAt40F": "4428.3",
        "cseName": "Rheem2020Prem50"
    },
    "Rheem2020Prem65": {
        "modelName": "MODELS_Rheem2020Prem65",
        "modelEnum": "153",
        "setpoint": "127.0",
        "isSetpointFixed": "0",
        "minCompOperatingTemp": "37.0",
        "tankSizeFixed": "1",
        "tankSize": "58.5",
        "tankUA_kJperHrC": "10.6",
        "canCompScale": "0",
        "numResistanceElements": "2",
        "totalResistanceCapacity": "30709.3",
        "isMultipass": "1",
        "isSplitSystem": "0",
        "coilConfig": "WRAPPED",
        "capacityAtMinOperatingTemp": "4275.2",
        "capacityAt40F": "4428.3",
        "cseName": "Rheem2020Prem65"
    },
    "Rheem2020Prem80": {
        "modelName": "MODELS_Rheem2020Prem80",
        "modelEnum": "154",
        "setpoint": "127.0",
        "isSetpointFixed": "0",
        "minCompOperatingTemp": "37.0",
        "tankSizeFixed": "1",
        "tankSize": "72.0",
        "tankUA_kJperHrC": "10.8",
        "canCompScale": "0",
        "numResistanceElements": "2",
        "totalResistanceCapacity": "30709.3",
        "isMultipass": "1",
        "isSplitSystem": "0",
        "coilConfig": "WRAPPED",
        "capacityAtMinOperatingTemp": "4275.2",
        "capacityAt40F": "4428.3",
        "cseName": "Rheem2020Prem80"
    },
    "RheemHB50": {
        "modelName": "MODELS_RheemHB50",
        "modelEnum": "140",
        "setpoint": "127.0",
        "isSetpointFixed": "0",
        "minCompOperatingTemp": "40.0",
        "tankSizeFixed": "1",
        "tankSize": "45.0",
        "tankUA_kJperHrC": "7.0",
        "canCompScale": "0",
        "numResistanceElements": "2",
        "totalResistanceCapacity": "22008.3",
        "isMultipass": "1",
        "isSplitSystem": "0",
        "coilConfig": "WRAPPED",
        "capacityAtMinOperatingTemp": "6621.9",
        "capacityAt40F": "6621.9",
        "cseName": "RheemHB50"
    },
    "RheemHBDR2250": {
        "modelName": "MODELS_RheemHBDR2250",
        "modelEnum": "141",
        "setpoint": "127.0",
        "isSetpointFixed": "0",
        "minCompOperatingTemp": "42.0",
        "tankSizeFixed": "1",
        "tankSize": "45.2",
        "tankUA_kJperHrC": "6.0",
        "canCompScale": "0",
        "numResistanceElements": "2",
        "totalResistanceCapacity": "15354.6",
        "isMultipass": "1",
        "isSplitSystem": "0",
        "coilConfig": "WRAPPED",
        "capacityAtMinOperatingTemp": "3679.2",
        "capacityAt40F": "0.0",
        "cseName": "RheemHBDR2250"
    },
    "RheemHBDR2265": {
        "modelName": "MODELS_RheemHBDR2265",
        "modelEnum": "143",
        "setpoint": "127.0",
        "isSetpointFixed": "0",
        "minCompOperatingTemp": "42.0",
        "tankSizeFixed": "1",
        "tankSize": "58.5",
        "tankUA_kJperHrC": "8.0",
        "canCompScale": "0",
        "numResistanceElements": "2",
        "totalResistanceCapacity": "15354.6",
        "isMultipass": "1",
        "isSplitSystem": "0",
        "coilConfig": "WRAPPED",
        "capacityAtMinOperatingTemp": "3679.2",
        "capacityAt40F": "0.0",
        "cseName": "RheemHBDR2265"
    },
    "RheemHBDR2280": {
        "modelName": "MODELS_RheemHBDR2280",
        "modelEnum": "145",
        "setpoint": "127.0",
        "isSetpointFixed": "0",
        "minCompOperatingTemp": "42.0",
        "tankSizeFixed": "1",
        "tankSize": "79.1",
        "tankUA_kJperHrC": "9.0",
        "canCompScale": "0",
        "numResistanceElements": "2",
        "totalResistanceCapacity": "15354.6",
        "isMultipass": "1",
        "isSplitSystem": "0",
        "coilConfig": "WRAPPED",
        "capacityAtMinOperatingTemp": "3679.2",
        "capacityAt40F": "0.0",
        "cseName": "RheemHBDR2280"
    },
    "RheemHBDR4550": {
        "modelName": "MODELS_RheemHBDR4550",
        "modelEnum": "142",
        "setpoint": "127.0",
        "isSetpointFixed": "0",
        "minCompOperatingTemp": "42.0",
        "tankSizeFixed": "1",
        "tankSize": "45.2",
        "tankUA_kJperHrC": "6.0",
        "canCompScale": "0",
        "numResistanceElements": "2",
        "totalResistanceCapacity": "30709.3",
        "isMultipass": "1",
        "isSplitSystem": "0",
        "coilConfig": "WRAPPED",
        "capacityAtMinOperatingTemp": "3679.2",
        "capacityAt40F": "0.0",
        "cseName": "RheemHBDR4550"
    },
    "RheemHBDR4565": {
        "modelName": "MODELS_RheemHBDR4565",
        "modelEnum": "144",
        "setpoint": "127.0",
        "isSetpointFixed": "0",
        "minCompOperatingTemp": "42.0",
        "tankSizeFixed": "1",
        "tankSize": "58.5",
        "tankUA_kJperHrC": "8.0",
        "canCompScale": "0",
        "numResistanceElements": "2",
        "totalResistanceCapacity": "30709.3",
        "isMultipass": "1",
        "isSplitSystem": "0",
        "coilConfig": "WRAPPED",
        "capacityAtMinOperatingTemp": "3679.2",
        "capacityAt40F": "0.0",
        "cseName": "RheemHBDR4565"
    },
    "RheemHBDR4580": {
        "modelName": "MODELS_RheemHBDR4580",
        "modelEnum": "146",
        "setpoint": "127.0",
        "isSetpointFixed": "0",
        "minCompOperatingTemp": "42.0",
        "tankSizeFixed": "1",
        "tankSize": "79.1",
        "tankUA_kJperHrC": "9.0",
        "canCompScale": "0",
        "numResistanceElements": "2",
        "totalResistanceCapacity": "30709.3",
        "isMultipass": "1",
        "isSplitSystem": "0",
        "coilConfig": "WRAPPED",
        "capacityAtMinOperatingTemp": "3679.2",
        "capacityAt40F": "0.0",
        "cseName": "RheemHBDR4580"
    },
    "RHEEM_HPHD135HNU_483_MP": {
        "modelName": "MODELS_RHEEM_HPHD135HNU_483_MP",
        "modelEnum": "352",
        "setpoint": "135.0",
        "isSetpointFixed": "0",
        "minCompOperatingTemp": "45.0",
        "tankSizeFixed": "0",
        "tankSize": "NA",
        "tankUA_kJperHrC": "NA",
        "canCompScale": "0",
        "numResistanceElements": "0",
        "totalResistanceCapacity": "0.0",
        "isMultipass": "1",
        "isSplitSystem": "1",
        "coilConfig": "EXTERNAL",
        "capacityAtMinOperatingTemp": "101971.3",
        "capacityAt40F": "0.0",
        "cseName": "Rheem_HPHD135HNU_MP"
    },
    "RHEEM_HPHD135VNU_483_MP": {
        "modelName": "MODELS_RHEEM_HPHD135VNU_483_MP",
        "modelEnum": "353",
        "setpoint": "135.0",
        "isSetpointFixed": "0",
        "minCompOperatingTemp": "45.0",
        "tankSizeFixed": "0",
        "tankSize": "NA",
        "tankUA_kJperHrC": "NA",
        "canCompScale": "0",
        "numResistanceElements": "0",
        "totalResistanceCapacity": "0.0",
        "isMultipass": "1",
        "isSplitSystem": "1",
        "coilConfig": "EXTERNAL",
        "capacityAtMinOperatingTemp": "101971.3",
        "capacityAt40F": "0.0",
        "cseName": "Rheem_HPHD135VNU_MP"
    },
    "RHEEM_HPHD60HNU_201_MP": {
        "modelName": "MODELS_RHEEM_HPHD60HNU_201_MP",
        "modelEnum": "350",
        "setpoint": "135.0",
        "isSetpointFixed": "0",
        "minCompOperatingTemp": "45.0",
        "tankSizeFixed": "0",
        "tankSize": "NA",
        "tankUA_kJperHrC": "NA",
        "canCompScale": "0",
        "numResistanceElements": "0",
        "totalResistanceCapacity": "0.0",
        "isMultipass": "1",
        "isSplitSystem": "1",
        "coilConfig": "EXTERNAL",
        "capacityAtMinOperatingTemp": "41214.2",
        "capacityAt40F": "0.0",
        "cseName": "Rheem_HPHD60HNU_MP"
    },
    "RHEEM_HPHD60VNU_201_MP": {
        "modelName": "MODELS_RHEEM_HPHD60VNU_201_MP",
        "modelEnum": "351",
        "setpoint": "135.0",
        "isSetpointFixed": "0",
        "minCompOperatingTemp": "45.0",
        "tankSizeFixed": "0",
        "tankSize": "NA",
        "tankUA_kJperHrC": "NA",
        "canCompScale": "0",
        "numResistanceElements": "0",
        "totalResistanceCapacity": "0.0",
        "isMultipass": "1",
        "isSplitSystem": "1",
        "coilConfig": "EXTERNAL",
        "capacityAtMinOperatingTemp": "41214.2",
        "capacityAt40F": "0.0",
        "cseName": "Rheem_HPHD60VNU_MP"
    },
    "Sanden120": {
        "modelName": "MODELS_Sanden120",
        "modelEnum": "123",
        "setpoint": "149.0",
        "isSetpointFixed": "1",
        "minCompOperatingTemp": "-25.0",
        "tankSizeFixed": "1",
        "tankSize": "119.0",
        "tankUA_kJperHrC": "9.0",
        "canCompScale": "0",
        "numResistanceElements": "0",
        "totalResistanceCapacity": "0.0",
        "isMultipass": "0",
        "isSplitSystem": "1",
        "coilConfig": "EXTERNAL",
        "capacityAtMinOperatingTemp": "17073.7",
        "capacityAt40F": "14182.9",
        "cseName": "Sanden120"
    },
    "Sanden40": {
        "modelName": "MODELS_Sanden40",
        "modelEnum": "120",
        "setpoint": "149.0",
        "isSetpointFixed": "1",
        "minCompOperatingTemp": "-25.0",
        "tankSizeFixed": "1",
        "tankSize": "42.3",
        "tankUA_kJperHrC": "5.0",
        "canCompScale": "0",
        "numResistanceElements": "0",
        "totalResistanceCapacity": "0.0",
        "isMultipass": "0",
        "isSplitSystem": "1",
        "coilConfig": "EXTERNAL",
        "capacityAtMinOperatingTemp": "17073.7",
        "capacityAt40F": "14182.9",
        "cseName": "Sanden40"
    },
    "Sanden80": {
        "modelName": "MODELS_Sanden80",
        "modelEnum": "121",
        "setpoint": "149.0",
        "isSetpointFixed": "1",
        "minCompOperatingTemp": "-25.0",
        "tankSizeFixed": "1",
        "tankSize": "83.2",
        "tankUA_kJperHrC": "7.0",
        "canCompScale": "0",
        "numResistanceElements": "0",
        "totalResistanceCapacity": "0.0",
        "isMultipass": "0",
        "isSplitSystem": "1",
        "coilConfig": "EXTERNAL",
        "capacityAtMinOperatingTemp": "17073.7",
        "capacityAt40F": "14182.9",
        "cseName": "Sanden80"
    },
    "Sanden_GS3_45HPA_US_SP": {
        "modelName": "MODELS_Sanden_GS3_45HPA_US_SP",
        "modelEnum": "122",
        "setpoint": "149.0",
        "isSetpointFixed": "1",
        "minCompOperatingTemp": "-25.0",
        "tankSizeFixed": "0",
        "tankSize": "NA",
        "tankUA_kJperHrC": "NA",
        "canCompScale": "0",
        "numResistanceElements": "0",
        "totalResistanceCapacity": "0.0",
        "isMultipass": "0",
        "isSplitSystem": "1",
        "coilConfig": "EXTERNAL",
        "capacityAtMinOperatingTemp": "17073.7",
        "capacityAt40F": "14182.9",
        "cseName": "SandenGS3"
    },
    "Scalable_MP": {
        "modelName": "MODELS_Scalable_MP",
        "modelEnum": "191",
        "setpoint": "135.0",
        "isSetpointFixed": "0",
        "minCompOperatingTemp": "40.0",
        "tankSizeFixed": "0",
        "tankSize": "NA",
        "tankUA_kJperHrC": "NA",
        "canCompScale": "1",
        "numResistanceElements": "2",
        "totalResistanceCapacity": "204728.4",
        "isMultipass": "1",
        "isSplitSystem": "1",
        "coilConfig": "EXTERNAL",
        "capacityAtMinOperatingTemp": "87300.5",
        "capacityAt40F": "87300.5",
        "cseName": "Scalable_MP"
    },
    "Stiebel220E": {
        "modelName": "MODELS_Stiebel220E",
        "modelEnum": "160",
        "setpoint": "127.0",
        "isSetpointFixed": "0",
        "minCompOperatingTemp": "32.0",
        "tankSizeFixed": "1",
        "tankSize": "56.0",
        "tankUA_kJperHrC": "9.0",
        "canCompScale": "0",
        "numResistanceElements": "1",
        "totalResistanceCapacity": "5118.2",
        "isMultipass": "1",
        "isSplitSystem": "0",
        "coilConfig": "WRAPPED",
        "capacityAtMinOperatingTemp": "3693.3",
        "capacityAt40F": "4792.7",
        "cseName": "Stiebel220E"
    },
    "TamScalable_SP": {
        "modelName": "MODELS_TamScalable_SP",
        "modelEnum": "190",
        "setpoint": "135.0",
        "isSetpointFixed": "0",
        "minCompOperatingTemp": "40.0",
        "tankSizeFixed": "0",
        "tankSize": "NA",
        "tankUA_kJperHrC": "NA",
        "canCompScale": "1",
        "numResistanceElements": "2",
        "totalResistanceCapacity": "204728.4",
        "isMultipass": "0",
        "isSplitSystem": "1",
        "coilConfig": "EXTERNAL",
        "capacityAtMinOperatingTemp": "90874.0",
        "capacityAt40F": "90874.0",
        "cseName": "Scalable_SP"
    }
}